<?xml version="1.0" encoding="UTF-8"?>
<svg width="12px" height="12px" viewBox="0 0 12 12" version="1.1" xmlns="http://www.w3.org/2000/svg" xmlns:xlink="http://www.w3.org/1999/xlink">
    <!-- Generator: Sketch 56.3 (81716) - https://sketch.com -->
    <title>report-icon</title>
    <desc>Created with Sketch.</desc>
    <g id="Share-Numbers-+-block-element" stroke="none" stroke-width="1" fill="none" fill-rule="evenodd">
        <g id="block-element" transform="translate(-613.000000, -1246.000000)" fill="#585858">
            <g id="bubble" transform="translate(533.000000, 903.000000)">
                <g id="Group-11" transform="translate(15.681342, 265.534591)">
                    <g id="Group-8">
                        <g id="Report-Issue" transform="translate(0.000000, 62.846960)">
                            <g id="Group-7" transform="translate(63.993711, 11.974843)">
                                <g id="iconReportIssue" transform="translate(0.324948, 2.138365)">
                                    <path d="M3.34038173,11.9748428 L0,8.63446103 L0,3.91061234 L3.34038173,0.570230608 L8.06435886,0.570230608 L11.4046122,3.91061234 L11.4046122,8.63446103 L8.06435886,11.9748428 L3.34038173,11.9748428 Z M5.13207547,3.99161426 L5.13207547,7.4129979 L6.27253669,7.4129979 L6.27253669,3.99161426 L5.13207547,3.99161426 Z M5.13207547,7.98322851 L5.13207547,9.12368973 L6.27253669,9.12368973 L6.27253669,7.98322851 L5.13207547,7.98322851 Z" id="report-icon"></path>
                                </g>
                            </g>
                        </g>
                    </g>
                </g>
            </g>
        </g>
    </g>
</svg>