<svg width="20" height="14" viewBox="0 0 20 14" fill="none" xmlns="http://www.w3.org/2000/svg">
<path d="M19.2131 4.27569C19.2162 4.3313 19.2121 4.38789 19.1983 4.4441L17.9646 9.43077C17.9024 9.68199 17.6796 9.85864 17.4235 9.86L10.0216 9.89778C10.0206 9.89778 10.0197 9.89778 10.0188 9.89778H2.61682C2.35933 9.89778 2.13495 9.72052 2.07275 9.46802L0.839102 4.46246C0.824897 4.40474 0.820785 4.34656 0.824374 4.28952C0.34714 4.13757 0 3.68628 0 3.15444C0 2.49824 0.528225 1.96444 1.17757 1.96444C1.82692 1.96444 2.35514 2.49824 2.35514 3.15444C2.35514 3.52399 2.18759 3.85462 1.92523 4.07305L3.46976 5.64566C3.86011 6.04316 4.40179 6.27103 4.95596 6.27103C5.61122 6.27103 6.23596 5.95657 6.62938 5.42972L9.1677 2.03093C8.95447 1.8156 8.82243 1.51806 8.82243 1.19C8.82243 0.5338 9.35065 0 10 0C10.6493 0 11.1776 0.5338 11.1776 1.19C11.1776 1.50824 11.0526 1.79709 10.8505 2.01084C10.8511 2.01174 10.852 2.0125 10.8526 2.01348L13.3726 5.42164C13.7658 5.95355 14.3928 6.27111 15.0499 6.27111C15.6092 6.27111 16.1351 6.05102 16.5305 5.65133L18.0848 4.08068C17.8169 3.86232 17.6449 3.52852 17.6449 3.15444C17.6449 2.49824 18.1731 1.96444 18.8224 1.96444C19.4718 1.96444 20 2.49824 20 3.15444C20 3.67208 19.6707 4.11234 19.2131 4.27569ZM17.8443 11.6733C17.8443 11.3604 17.5932 11.1067 17.2835 11.1067H2.77884C2.46916 11.1067 2.21809 11.3604 2.21809 11.6733V13.0333C2.21809 13.3463 2.46916 13.6 2.77884 13.6H17.2835C17.5932 13.6 17.8443 13.3463 17.8443 13.0333V11.6733Z" fill="#EDA51E"/>
</svg>
